…
    average_ride_length_by_month <- trip22_df %>% group_by(member_casual, month) %>% 
      summarise(average_ride_length = mean(ride_length))

    ## `summarise()` has grouped output by 'member_casual'. You can override using the
    ## `.groups` argument.

    average_ride_length_by_season <- trip22_df %>% group_by(member_casual, season) %>% 
      summarise(average_ride_length = mean(ride_length))

    ## `summarise()` has grouped output by 'member_casual'. You can override using the
    ## `.groups` argument.

    print(average_ride_length_by_hour)

    ## # A tibble: 48 × 3
    ## # Groups:   member_casual [2]
    ##    member_casual  hour average_ride_length
    ##    <chr>         <int>               <dbl>
    ##  1 casual            0                21.2
    ##  2 casual            1                24.0
    ##  3 casual            2                22.4
    ##  4 casual            3                22.0
    ##  5 casual            4                19.7
    ##  6 casual            5                16.5
    ##  7 casual            6                17.1
    ##  8 casual            7                15.4
    ##  9 casual            8                17.9
    ## 10 casual            9                23.8
    ## # ℹ 38 more rows
…
    print(average_ride_length_by_month)

    ## # A tibble: 24 × 3
    ## # Groups:   member_casual [2]
    ##    member_casual month    average_ride_length
    ##    <chr>         <chr>                  <dbl>
    ##  1 casual        April                   25.9
    ##  2 casual        August                  23.3
    ##  3 casual        December                14.8
    ##  4 casual        February                24.8
    ##  5 casual        January                 27.5
    ##  6 casual        July                    25.1
    ##  7 casual        June                    25.0
    ##  8 casual        March                   28.4
    ##  9 casual        May                     27.7
    ## 10 casual        November                17.2
    ## # ℹ 14 more rows
…
    colnames(number_of_rides_hour)[3] <- "number_of_riders"
    colnames(number_of_rides_timeofday)[3] <- "number_of_riders"
    colnames(number_of_rides_dayofweek)[3] <- "number_of_riders"
    colnames(number_of_rides_month)[3] <- "number_of_riders"
    colnames(number_of_rides_season)[3] <- "number_of_riders"

    print(number_of_rides_hour)

    ## # A tibble: 48 × 3
    ## # Groups:   member_casual, hour [48]
    ##    member_casual  hour number_of_riders
    ##    <chr>         <int>            <int>
    ##  1 casual            0            33307
    ##  2 casual            1            21320
    ##  3 casual            2            12670
    ##  4 casual            3             7199
    ##  5 casual            4             4659
    ##  6 casual            5             8417
    ##  7 casual            6            21677
    ##  8 casual            7            37863
    ##  9 casual            8            52231
    ## 10 casual            9            54608
    ## # ℹ 38 more rows
…
    print(number_of_rides_month)

    ## # A tibble: 24 × 3
    ## # Groups:   member_casual, month [24]
    ##    member_casual month    number_of_riders
    ##    <chr>         <chr>               <int>
    ##  1 casual        April               91889
    ##  2 casual        August             270074
    ##  3 casual        December            31502
    ##  4 casual        February            15143
    ##  5 casual        January             12521
    ##  6 casual        July               311649
    ##  7 casual        June               292053
    ##  8 casual        March               67150
    ##  9 casual        May                220232
    ## 10 casual        November            73533
    ## # ℹ 14 more rows
…
    popular_starting_station_member <- trip22_df %>% group_by(start_station_name) %>% 
      filter(member_casual == "member") %>% 
      count(start_station_name) %>% 
      arrange(desc(n))
    colnames(popular_starting_station_member)[2] <- "number_of_rides"

    print(popular_starting_station_casual)

    ## # A tibble: 1,454 × 2
    ## # Groups:   start_station_name [1,454]
    ##    start_station_name                 number_of_rides
    ##    <chr>                                        <int>
    ##  1 Streeter Dr & Grand Ave                      55054
    ##  2 DuSable Lake Shore Dr & Monroe St            30260
    ##  3 Millennium Park                              23948
    ##  4 Michigan Ave & Oak St                        23760
    ##  5 DuSable Lake Shore Dr & North Blvd           22156
    ##  6 Shedd Aquarium                               19421
    ##  7 Theater on the Lake                          17332
    ##  8 Wells St & Concord Ln                        14832
    ##  9 Dusable Harbor                               13270
    ## 10 Clark St & Armitage Ave                      12777
    ## # ℹ 1,444 more rows

    print(popular_starting_station_member)

    ## # A tibble: 1,384 × 2
    ## # Groups:   start_station_name [1,384]
    ##    start_station_name           number_of_rides
    ##    <chr>                                  <int>
    ##  1 Kingsbury St & Kinzie St               23518
    ##  2 Clark St & Elm St                      20575
    ##  3 Wells St & Concord Ln                  19671
    ##  4 Clinton St & Washington Blvd           18823
    ##  5 Loomis St & Lexington St               18247
    ##  6 Clinton St & Madison St                17995
    ##  7 University Ave & 57th St               17572
    ##  8 Ellis Ave & 60th St                    17496
    ##  9 Wells St & Elm St                      17493
    ## 10 Streeter Dr & Grand Ave                16204
    ## # ℹ 1,374 more rows
…
